com\mycompany\usermanagment\UserPanel$3.class
com\mycompany\usermanagment\TestReadFile.class
com\mycompany\usermanagment\UserPanel$4.class
com\mycompany\usermanagment\MainFrame$1.class
com\mycompany\usermanagment\UserPanel$8.class
com\mycompany\usermanagment\User.class
com\mycompany\usermanagment\UserPanel$5.class
com\mycompany\usermanagment\LoginFrame$3.class
com\mycompany\usermanagment\LoginFrame$2.class
com\mycompany\usermanagment\UserPanel$6.class
com\mycompany\usermanagment\UserPanel$1.class
com\mycompany\usermanagment\MainFrame.class
com\mycompany\usermanagment\TestwriteFile.class
com\mycompany\usermanagment\LoginFrame.class
com\mycompany\usermanagment\UserPanel$2.class
com\mycompany\usermanagment\UserPanel.class
com\mycompany\usermanagment\UserPanel$7.class
com\mycompany\usermanagment\UserService.class
com\mycompany\usermanagment\LoginFrame$1.class
